SINGLE
BLACK
23.33
................
..B.............
.B...........BW.
..BW.W..........
...WW.B..W......
...........W....
..........B.....
.W....BW......B.
.........BB..B..
........W..W....
..WW......B..B..
.BBW..B.........
.....B....W.....
........W....W..
...B............
W.......B....W..