GAME
BLACK
299.3151
WWWWW...........
WWWWW...........
WWWW............
WWW.............
WW..............
................
................
................
................
................
................
.............BBB
............BBBB
............BBBB
...........BBBBB
...........B.B.B